-------------------------------------------------------------------------------
Test set: com.khongdet.week6.BookBankTest
-------------------------------------------------------------------------------
Tests run: 6, Failures: 0, Errors: 0, Skipped: 0, Time elapsed: 0.001 s - in com.khongdet.week6.BookBankTest
