-------------------------------------------------------------------------------
Test set: com.khongdet.week6.RobotTest
-------------------------------------------------------------------------------
Tests run: 12, Failures: 0, Errors: 0, Skipped: 0, Time elapsed: 0.002 s - in com.khongdet.week6.RobotTest
